The Perruchet Effect
…
for(trial in 1:46) { - 1:46 means the whole numbers from 1 to 46. So, the first time we go round this loop, trial is 1, the second time it is 2, and so on. When we get to 46, the loop runs for the last time.

onep <- bind_rows(onep, ...) - Bind (attach) some new rows to onep :

base.correct(trial) - The trials to bind are those that come out of base.correct(trial).

Trial-level summary

Lets take a look at what weve generated.

Enter these commands into your script, and run them:

onep

# A tibble: 7,819 x 8
    subj  time key   value    cval rtime trial   run
   <dbl> <dbl> <chr> <dbl>   <dbl> <dbl> <int> <dbl>
 1   168   551 GS     2.37 -0.0839  -451     1     0
 2   168   602 GS     2.37 -0.0839  -400     1     0
 3   168   651 GS     2.46  0.0111  -351     1     0
 4   168   702 GS     2.46  0.0111  -300     1     0
 5   168   752 GS     2.48  0.0291  -250     1     0
 6   168   801 GS     2.48  0.0291  -201     1     0
 7   168   851 GS     2.48  0.0291  -151     1     0
 8   168   902 GS     2.48  0.0291  -100     1     0
 9   168   952 GS     2.48  0.0291   -50     1     0
10   168  1002 GS     2.54  0.0941     0     1     0
#  with 7,809 more rows
…
For the purposes of analysis, we need to summarize this data down to just one number per trial, representing how large the GSR was on that trial. Theres a few ways one could do this; here were just going to take the average GSR for trial.

Enter these commands into your script, and run them:

## Calculate mean GSR for each trial
gsr.sum  <- onep %>%
    filter(rtime >= 0) %>%
    group_by(trial, run) %>%
    summarise(cval = mean(cval))

`summarise()` has grouped output by 'trial'. You can override using the `.groups` argument.

gsr.sum

# A tibble: 46 x 3
# Groups:   trial [46]
   trial   run    cval
   <int> <dbl>   <dbl>
 1     1     0  0.361 
 2     2    -1 -0.109 
 3     3     1  0.181 
 4     4     0  0.125 
 5     5    -2  0.0404
 6     6     1  0.0714
 7     7     0 -0.252 
 8     8     0  0.644 
 9     9    -3  0.427 
10    10     0  0.874 
#  with 36 more rows
…
Explanation of output

The output shows the contents of gsr.sum. Each row is one trial. For each trial, we have the run length, and the mean GSR response cval. Later on, well analyze these data - but first, we have to finish the preprocesssing.

Adding a second dependent variable

The data frame onep contains a GSR for each trial, but there is also an expectancy rating for each trial. It will make it easier to look at these data if we also include these expectancy ratings into onep. So, using the following commands, we first create a new data frame with the expectancy ratings.

Enter these commands into your script, and run them:

## Extract expectancy ratings
expect <- dat %>% filter(key == "ER") %>% add_column(trial = 1:46) %>% select(subj, trial, value)
expect

# A tibble: 46 x 3
    subj trial value
   <dbl> <int> <dbl>
 1   168     1     2
 2   168     2     3
 3   168     3     3
 4   168     4     2
 5   168     5     4
 6   168     6     4
 7   168     7     3
 8   168     8     3
 9   168     9     4
10   168    10     4
#  with 36 more rows
…
Explanation of output

The dataframe expect contains one row for each trial, and the column value contains the expectancy rating for that trial.

Combining expectancy and GSR data

In the final step of preprocessing this participant, we join the expectancy ratings expect and the mean GSRs (gsr.sum) into a single data frame.

Enter these commands into your script, and run them:

## Combine GSR and expectancy data
comb.data  <- full_join(gsr.sum, expect, by = "trial")
comb.data

# A tibble: 46 x 5
# Groups:   trial [46]
   trial   run    cval  subj value
   <int> <dbl>   <dbl> <dbl> <dbl>
 1     1     0  0.361    168     2
 2     2    -1 -0.109    168     3
 3     3     1  0.181    168     3
 4     4     0  0.125    168     2
 5     5    -2  0.0404   168     4
 6     6     1  0.0714   168     4
 7     7     0 -0.252    168     3
 8     8     0  0.644    168     3
 9     9    -3  0.427    168     4
10    10     0  0.874    168     4
#  with 36 more rows
Explanation of command

The command full_join joins together two separate data frames, using a column they have in common. In this case, the gsr.sum and expect data frames have the trial column in common.

List of participant numbers

Weve now completed the preprocessing of one participant (168). In principle, we could go through all the same steps for each of the other approximately 50 participants, but that would be rather tedious. Instead, we can use a loop to automate this for us, as well see in a minute, but first we need to get a list of participant numbers.

Enter these commands into your script, and run them:

## Create list of participant numbers
subjs <- enframe(unique(raw$subj))
subjs

# A tibble: 43 x 2
    name value
   <int> <dbl>
 1     1   200
 2     2   198
 3     3   197
 4     4   196
 5     5   195
 6     6   193
 7     7   191
 8     8   188
 9     9   186
10    10   184
#  with 33 more rows
…
    }
    gsr.sum  <- onep %>%
        filter(rtime >= 0) %>%
        group_by(trial, run) %>%
        summarise(cval = mean(cval))
    expect <- dat %>%
        filter(key == "ER") %>%
        add_column(trial = 1:46) %>%
        select(subj, trial, value)
    comb.data  <- full_join(gsr.sum, expect, by = "trial")
    sum.data  <- bind_rows(sum.data, comb.data)
}
sum.data

# A tibble: 1,978 x 5
# Groups:   trial [46]
   trial   run    cval  subj value
   <int> <dbl>   <dbl> <dbl> <dbl>
 1     1     0  0.334    200     1
 2     2    -1 -0.118    200     4
 3     3     0  0.173    200     2
 4     4     0  0.124    200     4
 5     5     3  0.125    200     4
 6     6     0 -0.0832   200     2
 7     7     0  0.228    200     4
 8     8    -3  0.228    200     4
 9     9     1  0.0773   200     5
10    10     0  0.789    200     4
#  with 1,968 more rows
…
